// Jest Snapshot v1, https://goo.gl/fbAQLP

exports[`AppListing should render "No more app can be loaded" 1`] = `
<AppList>
  <Connect(AppListing)
    appIndex={0}
    item={
      Object {
        "id": "app-id",
      }
    }
    key="app-id"
  />
  <styled.div
    isShow={true}
  >
    No more app can be loaded....
  </styled.div>
</AppList>
`;

exports[`AppListing should render no result 1`] = `
<AppList>
  <NoResults
    msg="No results for top free app..."
  />
</AppList>
`;
